Chapter 13 Calculate number of genes per megabase per chromosomes | YOUR TITLE HERE
…
hg_nuc_ascending = hg_nuc[order(hg_nuc$genes_per_Mb),]
View(hg_nuc_ascending)

descending order

hg_nuc_descending = hg_nuc[order(-hg_nuc$genes_per_Mb),]
View(hg_nuc_descending)

Selecting specific columns of the data

sub_hg=hg[,c(1,2)] #1and2 are the row numbers 
sub_hg

## # A tibble: 25 × 2
##    Chromosome Base_Pairs
##    <chr>           <dbl>
##  1 1           248956422
##  2 2           242193529
##  3 3           198295559
##  4 4           190214555
##  5 5           181538259
##  6 6           170805979
##  7 7           159345973
##  8 8           145138636
##  9 9           138394717
## 10 10          133797422
## # ℹ 15 more rows
…
