Chapter 5 Dpyr library | R Course
…
Q4. Which 10 Chromosomes have the highest protein gene density (Genes per megabase)

Mutate -> is a command to create a new column

Lets create a column of genes per megabase where a megabase is 1000000 base pairs

hg3=hg %>%
  mutate(Genes_per_Mb=round((Protein_Coding_genes/(Base_Pairs/100000)),
                            digit=2))
hg3

## # A tibble: 25 × 9
##    Chromosome Base_Pairs Protein_Coding_genes Pseudogenes Total_long_non_codin…¹
##    <chr>           <dbl>                <dbl>       <dbl>                  <dbl>
##  1 1           248956422                 2058        1220                   1200
##  2 2           242193529                 1309        1023                   1037
##  3 3           198295559                 1078         763                    711
##  4 4           190214555                  752         727                    657
##  5 5           181538259                  876         721                    844
##  6 6           170805979                 1048         801                    639
##  7 7           159345973                  989         885                    605
##  8 8           145138636                  677         613                    735
##  9 9           138394717                  786         661                    491
## 10 10          133797422                  733         568                    579
## # ℹ 15 more rows
## # ℹ abbreviated name: ¹​Total_long_non_coding_RNA
## # ℹ 4 more variables: Total_small_nc_RA <dbl>, miRNA <dbl>, rRNA <dbl>,
## #   Genes_per_Mb <dbl>
…
##  [1] "A" "A" "A" "A" "A" "A" "A" "A" "A" "A" "A" "A" "A" "A" "A" "A" "A" "A" "A"
## [20] "A" "A" "A"

chr_class=c(autosomes, "S", "S", "M")
chr_class

##  [1] "A" "A" "A" "A" "A" "A" "A" "A" "A" "A" "A" "A" "A" "A" "A" "A" "A" "A" "A"
## [20] "A" "A" "A" "S" "S" "M"

hg5= hg3 %>%
  mutate(Type=chr_class)

hg5 # confirm the new column "Type" is added

## # A tibble: 25 × 10
##    Chromosome Base_Pairs Protein_Coding_genes Pseudogenes Total_long_non_codin…¹
##    <chr>           <dbl>                <dbl>       <dbl>                  <dbl>
##  1 1           248956422                 2058        1220                   1200
##  2 2           242193529                 1309        1023                   1037
##  3 3           198295559                 1078         763                    711
##  4 4           190214555                  752         727                    657
##  5 5           181538259                  876         721                    844
##  6 6           170805979                 1048         801                    639
##  7 7           159345973                  989         885                    605
##  8 8           145138636                  677         613                    735
##  9 9           138394717                  786         661                    491
## 10 10          133797422                  733         568                    579
## # ℹ 15 more rows
## # ℹ abbreviated name: ¹​Total_long_non_coding_RNA
## # ℹ 5 more variables: Total_small_nc_RA <dbl>, miRNA <dbl>, rRNA <dbl>,
## #   Genes_per_Mb <dbl>, Type <chr>
…
